{
  "@graph": [
    {
      "@id": "http://liris.cnrs.fr/asawoo/functionalities/Motion",
      "@type": "http://www.w3.org/2002/07/owl#Class",
      "http://liris.cnrs.fr/asawoo/vocab#isImplementedBy": {
        "@id": "http://liris.cnrs.fr/asawoo/capabilities/MotionCapability"
      },
      "http://www.w3.org/2000/01/rdf-schema#subClassOf": {
        "@id": "http://liris.cnrs.fr/asawoo/vocab#Functionality"
      }
    },
    {
      "@id": "http://liris.cnrs.fr/asawoo/functionalities/Camera",
      "@type": "http://www.w3.org/2002/07/owl#Class",
      "http://liris.cnrs.fr/asawoo/vocab#isImplementedBy": {
        "@id": "http://liris.cnrs.fr/asawoo/capabilities/CameraCapability"
      },
      "http://www.w3.org/2000/01/rdf-schema#subClassOf": {
        "@id": "http://liris.cnrs.fr/asawoo/vocab#Functionality"
      }
    },
    {
      "@id": "http://liris.cnrs.fr/asawoo/functionalities/Patrol",
      "@type": "http://www.w3.org/2002/07/owl#Class",
      "http://liris.cnrs.fr/asawoo/vocab#isComposedOf": [
        {
          "@id": "http://liris.cnrs.fr/asawoo/functionalities/Motion"
        },
        {
          "@id": "http://liris.cnrs.fr/asawoo/functionalities/Led"
        },
        {
          "@id": "http://liris.cnrs.fr/asawoo/functionalities/Camera"
        }
      ],
      "http://www.w3.org/2000/01/rdf-schema#subClassOf": {
        "@id": "http://liris.cnrs.fr/asawoo/vocab#Functionality"
      }
    },
    {
      "@id": "http://liris.cnrs.fr/asawoo/vocab#Functionality",
      "@type": "http://www.w3.org/2002/07/owl#Class"
    },
    {
      "@id": "http://liris.cnrs.fr/asawoo/functionalities/Led",
      "@type": "http://www.w3.org/2002/07/owl#Class",
      "http://liris.cnrs.fr/asawoo/vocab#isImplementedBy": {
        "@id": "http://liris.cnrs.fr/asawoo/capabilities/LedCapability"
      },
      "http://www.w3.org/2000/01/rdf-schema#subClassOf": {
        "@id": "http://liris.cnrs.fr/asawoo/vocab#Functionality"
      }
    },
    {
      "@id": "http://liris.cnrs.fr/asawoo/capabilities/MotionCapability",
      "@type": "http://www.w3.org/2002/07/owl#Class",
      "http://www.w3.org/2000/01/rdf-schema#subClassOf": {
        "@id": "http://liris.cnrs.fr/asawoo/vocab#Capability"
      }
    },
    {
      "@id": "http://liris.cnrs.fr/asawoo/capabilities/CameraCapability",
      "@type": "http://www.w3.org/2002/07/owl#Class",
      "http://www.w3.org/2000/01/rdf-schema#subClassOf": {
        "@id": "http://liris.cnrs.fr/asawoo/vocab#Capability"
      }
    },
    {
      "@id": "http://liris.cnrs.fr/asawoo/capabilities/LedCapability",
      "@type": "http://www.w3.org/2002/07/owl#Class",
      "http://www.w3.org/2000/01/rdf-schema#subClassOf": {
        "@id": "http://liris.cnrs.fr/asawoo/vocab#Capability"
      }
    }
  ]
}
